government = monarchy
primary_culture = fathide_ogre
government_rank = 1
add_government_reform = ogre_kingdom
religion = feast_of_the_gods
technology_group = tech_ogre
capital = 5039

1438.1.1 = {
	monarch = {
		name = "Oghan"
		dynasty = "Strongrock"
		birth_date = 1417.9.13
		adm = 3
		dip = 4
		mil = 2
    }
	add_ruler_personality = craven_personality

}
