# Leader Traits
# Leaders can have 1 personality, chance of getting a new one is:
#  <base chance> * <army tradition gained in battle>
# Modifiers apply only to the stack lead by the leader.

###############################################
# General Traits
###############################################

war_wizard_personality = {
	allow = {
		is_admiral = no
		has_estate = estate_mages
		#or acolytes
		NOT = { has_country_flag = banned_magic }
		has_estate_privilege = estate_mages_battlemage_academies
	}
	siege_ability = 0.5
	#land_morale = 0.25 Removed these as they do not affect leaders
	#leader_land_shock = 1 
	shock_damage = 0.10 # Added this in place of removed modifiers
	army_tradition_from_battle = -1
}

wyvern_rider_personality = {
	allow = {
		is_admiral = no
		has_country_modifier = verne_wyvern_riders
		any_owned_province = {
			has_province_modifier = "verne_sanctuary"
		}
	}
	cavalry_flanking = 0.5
	movement_speed = 0.5
	shock_damage = 0.2
}

glory_seeker_personality = {
	allow = {
		is_admiral = no
	}
	prestige_from_land = 0.5
	army_tradition_from_battle = 0.5
}

born_to_the_saddle_personality = {
	allow = {
		cavalry_fraction = 0.2
		is_admiral = no
	}
	cavalry_flanking = 0.5
}

defensive_planner_personality = {
	allow = {
		is_admiral = no
	}
	shock_damage_received = -0.1
}

battlefield_medic_personality = {
	allow = {
		is_admiral = no
	}
	reinforce_speed = 0.33
}

ruthless_personality = {
	allow = {
		is_admiral = no
	}
	fire_damage = 0.1
}

inspirational_leader_general_personality = {
	allow = {
		is_admiral = no
	}
	recover_army_morale_speed = 0.1
}

master_of_arms_personality = {
	allow = {
		infantry_fraction = 0.2
		is_admiral = no
	}
	infantry_power = 0.1
}

goal_oriented_personality = {
	allow = {
		is_admiral = no
	}
	movement_speed = 0.1
}

hardy_warrior_personality = {
	allow = {
		is_admiral = no
	}
	land_attrition = -0.2
}

siege_specialist_personality = {
	allow = {
		is_admiral = no
		artillery_fraction = 0.01 # "any cannons"
	}
	siege_ability = 0.15
}

cannoneer_personality = {
	allow = {
		is_admiral = no
		artillery_fraction = 0.01 # "any cannons"
	}
	artillery_power = 0.1
}


###############################################
# Admiral personalities
###############################################

extortioner_personality = {
	allow = {
		is_admiral = yes
	}
	global_ship_trade_power = 0.15
}

ruthless_blockader_personality = {
	allow = {
		is_admiral = yes
	}
	blockade_efficiency = 0.25
}

buccaneer_personality = {
	allow = {
		is_admiral = yes
	}
	privateer_efficiency = 0.15
}

prize_hunter_personality = {
	allow = {
		is_admiral = yes
	}
	capture_ship_chance = 0.2
}

ironside_personality = {
	allow = {
		is_admiral = yes
	}
	ship_durability = 0.05
}

naval_engineer_personality = {
	allow = {
		is_admiral = yes
	}
	local_ship_repair = 0.25
}

naval_showman_personality = {
	allow = {
		is_admiral = yes
	}
	prestige_from_naval = 0.5
	naval_tradition_from_battle = 0.5
}

ram_raider_personality = {
	allow = {
		is_admiral = yes
		galley_fraction = 0.2
	}
	galley_power = 0.1
}

naval_gunner_personality = {
	allow = {
		heavy_ship_fraction = 0.1
		is_admiral = yes
	}
	heavy_ship_power = 0.1
}

accomplished_sailor_personality = {
	allow = {
		is_admiral = yes
	}
	movement_speed = 0.1
}

level_headed_personality = {
	allow = {
		is_admiral = yes
	}
	sunk_ship_morale_hit_recieved = -0.1
}
