#233 - Cornwall | 

owner = A25
controller = A25
add_core = A25
culture = crownsman
religion = regent_court

hre = yes

base_tax = 7
base_production = 5
base_manpower = 3

trade_goods = fish

capital = ""

is_city = yes









add_permanent_province_modifier = {
	name = half_elven_minority_coexisting_small
	duration = -1
}
