#51 - Ruppin | 

owner = A33
controller = A33
add_core = A33
culture = vernman
religion = regent_court

hre = yes

base_tax = 2
base_production = 2
base_manpower = 2

trade_goods = fish

capital = ""

is_city = yes
fort_15th = yes 






